---
http_interactions:
- request:
    method: get
    uri: https://api.flickr.com/services/rest/?api_key=<FLICKR_KEY>&format=json&method=flickr.photos.search&nojsoncallback=1&per_page=1&safe_search=1&text=Killeen,%20TX
    body:
      encoding: US-ASCII
      string: ''
    headers:
      User-Agent:
      - Faraday v1.3.0
      Accept-Encoding:
      - gzip;q=1.0,deflate;q=0.6,identity;q=0.3
      Accept:
      - "*/*"
  response:
    status:
      code: 200
      message: OK
    headers:
      Content-Type:
      - application/json
      Content-Length:
      - '245'
      Connection:
      - keep-alive
      Date:
      - Sun, 17 Jan 2021 21:31:48 GMT
      Server:
      - Apache/2.4.46 (Ubuntu)
      X-Content-Type-Options:
      - nosniff
      X-Frame-Options:
      - SAMEORIGIN
      X-Cache:
      - Miss from cloudfront
      Via:
      - 1.1 48a6ccbb0ddb052ab512a3422295bd39.cloudfront.net (CloudFront)
      X-Amz-Cf-Pop:
      - DEN50-C2
      X-Amz-Cf-Id:
      - oxAUhhj9lZzFOAk6f6SgyQDOMEFi19WN9YYiqtKAz3bumwYfj0-vzg==
    body:
      encoding: UTF-8
      string: '{"photos":{"page":1,"pages":6522,"perpage":1,"total":"6522","photo":[{"id":"50841175836","owner":"53158134@N02","secret":"94e3d109de","server":"65535","farm":66,"title":"N42RA
        (Rio Airways)","ispublic":1,"isfriend":0,"isfamily":0}]},"stat":"ok"}'
  recorded_at: Sun, 17 Jan 2021 21:31:48 GMT
- request:
    method: get
    uri: https://api.flickr.com/services/rest/?api_key=<FLICKR_KEY>&format=json&method=flickr.people.getInfo&nojsoncallback=1&user_id=53158134@N02
    body:
      encoding: US-ASCII
      string: ''
    headers:
      User-Agent:
      - Faraday v1.3.0
      Accept-Encoding:
      - gzip;q=1.0,deflate;q=0.6,identity;q=0.3
      Accept:
      - "*/*"
  response:
    status:
      code: 200
      message: OK
    headers:
      Content-Type:
      - application/json
      Content-Length:
      - '827'
      Connection:
      - keep-alive
      Date:
      - Sun, 17 Jan 2021 21:31:48 GMT
      Server:
      - Apache/2.4.46 (Ubuntu)
      X-Content-Type-Options:
      - nosniff
      X-Frame-Options:
      - SAMEORIGIN
      X-Cache:
      - Miss from cloudfront
      Via:
      - 1.1 235fa9476ee502b13c0801d1fa3b57a2.cloudfront.net (CloudFront)
      X-Amz-Cf-Pop:
      - DEN50-C2
      X-Amz-Cf-Id:
      - keGPZ-C2r5DY1wrfZzS4juSjtpZ1A0kead_oRKsRaU0-dLodcmBlyA==
    body:
      encoding: UTF-8
      string: '{"person":{"id":"53158134@N02","nsid":"53158134@N02","ispro":1,"can_buy_pro":0,"iconserver":"5294","iconfarm":6,"path_alias":"steelhead2010","has_stats":"1","pro_badge":"standard","expire":"0","username":{"_content":"Steelhead
        2010"},"realname":{"_content":"Reinhard Zinabold"},"location":{"_content":"Ancaster\/Ontario,
        Canada"},"timezone":{"label":"Eastern Time (US & Canada)","offset":"-05:00","timezone_id":"EST5EDT"},"description":{"_content":""},"photosurl":{"_content":"https:\/\/www.flickr.com\/photos\/steelhead2010\/"},"profileurl":{"_content":"https:\/\/www.flickr.com\/people\/steelhead2010\/"},"mobileurl":{"_content":"https:\/\/m.flickr.com\/photostream.gne?id=53137786"},"photos":{"firstdatetaken":{"_content":"1980-01-01
        00:00:17"},"firstdate":{"_content":"1282265112"},"count":{"_content":32638}}},"stat":"ok"}'
  recorded_at: Sun, 17 Jan 2021 21:31:48 GMT
recorded_with: VCR 6.0.0
